{
    "data": {
        "items": [
            {
                "id": 1221,
                "code": "AGRI-2025-23814B68",
                "sponsorId": 158,
                "subscriptionTierId": 1,
                "sponsorshipPurchaseId": 34,
                "isUsed": false,
                "createdDate": "2025-11-09T08:54:28.761499",
                "expiryDate": "2025-12-09T08:54:28.761499",
                "isActive": true,
                "linkClickCount": 0,
                "linkDelivered": false
            },
            {
                "id": 1220,
                "code": "AGRI-2025-4399801A",
                "sponsorId": 158,
                "subscriptionTierId": 1,
                "sponsorshipPurchaseId": 34,
                "isUsed": false,
                "createdDate": "2025-11-09T08:54:28.761495",
                "expiryDate": "2025-12-09T08:54:28.761495",
                "isActive": true,
                "linkClickCount": 0,
                "linkDelivered": false
            },
            {
                "id": 1219,
                "code": "AGRI-2025-88490812",
                "sponsorId": 158,
                "subscriptionTierId": 1,
                "sponsorshipPurchaseId": 34,
                "isUsed": false,
                "createdDate": "2025-11-09T08:54:28.761491",
                "expiryDate": "2025-12-09T08:54:28.761491",
                "isActive": true,
                "linkClickCount": 0,
                "linkDelivered": false
            },
            {
                "id": 1218,
                "code": "AGRI-2025-2121A3F3",
                "sponsorId": 158,
                "subscriptionTierId": 1,
                "sponsorshipPurchaseId": 34,
                "isUsed": false,
                "createdDate": "2025-11-09T08:54:28.761487",
                "expiryDate": "2025-12-09T08:54:28.761487",
                "isActive": true,
                "linkClickCount": 0,
                "linkDelivered": false
            },
            {
                "id": 1217,
                "code": "AGRI-2025-8681F3C3",
                "sponsorId": 158,
                "subscriptionTierId": 1,
                "sponsorshipPurchaseId": 34,
                "isUsed": false,
                "createdDate": "2025-11-09T08:54:28.761483",
                "expiryDate": "2025-12-09T08:54:28.761483",
                "isActive": true,
                "linkClickCount": 0,
                "linkDelivered": false
            },
            {
                "id": 1216,
                "code": "AGRI-2025-4419DE15",
                "sponsorId": 158,
                "subscriptionTierId": 1,
                "sponsorshipPurchaseId": 34,
                "isUsed": false,
                "createdDate": "2025-11-09T08:54:28.76148",
                "expiryDate": "2025-12-09T08:54:28.76148",
                "isActive": true,
                "linkClickCount": 0,
                "linkDelivered": false
            },
            {
                "id": 1215,
                "code": "AGRI-2025-68204330",
                "sponsorId": 158,
                "subscriptionTierId": 1,
                "sponsorshipPurchaseId": 34,
                "isUsed": false,
                "createdDate": "2025-11-09T08:54:28.761476",
                "expiryDate": "2025-12-09T08:54:28.761476",
                "isActive": true,
                "linkClickCount": 0,
                "linkDelivered": false
            },
            {
                "id": 1214,
                "code": "AGRI-2025-90358888",
                "sponsorId": 158,
                "subscriptionTierId": 1,
                "sponsorshipPurchaseId": 34,
                "isUsed": false,
                "createdDate": "2025-11-09T08:54:28.761472",
                "expiryDate": "2025-12-09T08:54:28.761472",
                "isActive": true,
                "linkClickCount": 0,
                "linkDelivered": false
            },
            {
                "id": 1213,
                "code": "AGRI-2025-6432C2A9",
                "sponsorId": 158,
                "subscriptionTierId": 1,
                "sponsorshipPurchaseId": 34,
                "isUsed": false,
                "createdDate": "2025-11-09T08:54:28.761469",
                "expiryDate": "2025-12-09T08:54:28.761469",
                "isActive": true,
                "linkClickCount": 0,
                "linkDelivered": false
            },
            {
                "id": 1212,
                "code": "AGRI-2025-4304F763",
                "sponsorId": 158,
                "subscriptionTierId": 1,
                "sponsorshipPurchaseId": 34,
                "isUsed": false,
                "createdDate": "2025-11-09T08:54:28.761465",
                "expiryDate": "2025-12-09T08:54:28.761465",
                "isActive": true,
                "linkClickCount": 0,
                "linkDelivered": false
            },
            {
                "id": 1211,
                "code": "AGRI-2025-2039CB74",
                "sponsorId": 158,
                "subscriptionTierId": 1,
                "sponsorshipPurchaseId": 34,
                "isUsed": false,
                "createdDate": "2025-11-09T08:54:28.761462",
                "expiryDate": "2025-12-09T08:54:28.761462",
                "isActive": true,
                "linkClickCount": 0,
                "linkDelivered": false
            },
            {
                "id": 1210,
                "code": "AGRI-2025-5025FB63",
                "sponsorId": 158,
                "subscriptionTierId": 1,
                "sponsorshipPurchaseId": 34,
                "isUsed": false,
                "createdDate": "2025-11-09T08:54:28.761458",
                "expiryDate": "2025-12-09T08:54:28.761458",
                "isActive": true,
                "linkClickCount": 0,
                "linkDelivered": false
            },
            {
                "id": 1209,
                "code": "AGRI-2025-238552F1",
                "sponsorId": 158,
                "subscriptionTierId": 1,
                "sponsorshipPurchaseId": 34,
                "isUsed": false,
                "createdDate": "2025-11-09T08:54:28.761455",
                "expiryDate": "2025-12-09T08:54:28.761455",
                "isActive": true,
                "linkClickCount": 0,
                "linkDelivered": false
            },
            {
                "id": 1208,
                "code": "AGRI-2025-51853BCF",
                "sponsorId": 158,
                "subscriptionTierId": 1,
                "sponsorshipPurchaseId": 34,
                "isUsed": false,
                "createdDate": "2025-11-09T08:54:28.761451",
                "expiryDate": "2025-12-09T08:54:28.761451",
                "isActive": true,
                "linkClickCount": 0,
                "linkDelivered": false
            },
            {
                "id": 1207,
                "code": "AGRI-2025-731653FC",
                "sponsorId": 158,
                "subscriptionTierId": 1,
                "sponsorshipPurchaseId": 34,
                "isUsed": false,
                "createdDate": "2025-11-09T08:54:28.761447",
                "expiryDate": "2025-12-09T08:54:28.761448",
                "isActive": true,
                "linkClickCount": 0,
                "linkDelivered": false
            },
            {
                "id": 1206,
                "code": "AGRI-2025-97759ABD",
                "sponsorId": 158,
                "subscriptionTierId": 1,
                "sponsorshipPurchaseId": 34,
                "isUsed": false,
                "createdDate": "2025-11-09T08:54:28.761444",
                "expiryDate": "2025-12-09T08:54:28.761444",
                "isActive": true,
                "linkClickCount": 0,
                "linkDelivered": false
            },
            {
                "id": 1205,
                "code": "AGRI-2025-481911D1",
                "sponsorId": 158,
                "subscriptionTierId": 1,
                "sponsorshipPurchaseId": 34,
                "isUsed": false,
                "createdDate": "2025-11-09T08:54:28.76144",
                "expiryDate": "2025-12-09T08:54:28.76144",
                "isActive": true,
                "linkClickCount": 0,
                "linkDelivered": false
            },
            {
                "id": 1204,
                "code": "AGRI-2025-5567B2D9",
                "sponsorId": 158,
                "subscriptionTierId": 1,
                "sponsorshipPurchaseId": 34,
                "isUsed": false,
                "createdDate": "2025-11-09T08:54:28.761436",
                "expiryDate": "2025-12-09T08:54:28.761436",
                "isActive": true,
                "linkClickCount": 0,
                "linkDelivered": false
            },
            {
                "id": 1203,
                "code": "AGRI-2025-20393358",
                "sponsorId": 158,
                "subscriptionTierId": 1,
                "sponsorshipPurchaseId": 34,
                "isUsed": false,
                "createdDate": "2025-11-09T08:54:28.761432",
                "expiryDate": "2025-12-09T08:54:28.761432",
                "isActive": true,
                "linkClickCount": 0,
                "linkDelivered": false
            },
            {
                "id": 1202,
                "code": "AGRI-2025-73725136",
                "sponsorId": 158,
                "subscriptionTierId": 1,
                "sponsorshipPurchaseId": 34,
                "isUsed": false,
                "createdDate": "2025-11-09T08:54:28.761429",
                "expiryDate": "2025-12-09T08:54:28.761429",
                "isActive": true,
                "linkClickCount": 0,
                "linkDelivered": false
            },
            {
                "id": 1201,
                "code": "AGRI-2025-52805451",
                "sponsorId": 158,
                "subscriptionTierId": 1,
                "sponsorshipPurchaseId": 34,
                "isUsed": false,
                "createdDate": "2025-11-09T08:54:28.761424",
                "expiryDate": "2025-12-09T08:54:28.761425",
                "isActive": true,
                "linkClickCount": 0,
                "linkDelivered": false
            },
            {
                "id": 1200,
                "code": "AGRI-2025-1602AD56",
                "sponsorId": 158,
                "subscriptionTierId": 1,
                "sponsorshipPurchaseId": 34,
                "isUsed": false,
                "createdDate": "2025-11-09T08:54:28.761417",
                "expiryDate": "2025-12-09T08:54:28.761417",
                "isActive": true,
                "linkClickCount": 0,
                "linkDelivered": false
            },
            {
                "id": 1199,
                "code": "AGRI-2025-5153F98B",
                "sponsorId": 158,
                "subscriptionTierId": 1,
                "sponsorshipPurchaseId": 34,
                "isUsed": false,
                "createdDate": "2025-11-09T08:54:28.761414",
                "expiryDate": "2025-12-09T08:54:28.761414",
                "isActive": true,
                "linkClickCount": 0,
                "linkDelivered": false
            },
            {
                "id": 1198,
                "code": "AGRI-2025-3279BB21",
                "sponsorId": 158,
                "subscriptionTierId": 1,
                "sponsorshipPurchaseId": 34,
                "isUsed": false,
                "createdDate": "2025-11-09T08:54:28.761411",
                "expiryDate": "2025-12-09T08:54:28.761411",
                "isActive": true,
                "linkClickCount": 0,
                "linkDelivered": false
            },
            {
                "id": 1197,
                "code": "AGRI-2025-976824C5",
                "sponsorId": 158,
                "subscriptionTierId": 1,
                "sponsorshipPurchaseId": 34,
                "isUsed": false,
                "createdDate": "2025-11-09T08:54:28.761407",
                "expiryDate": "2025-12-09T08:54:28.761407",
                "isActive": true,
                "linkClickCount": 0,
                "linkDelivered": false
            },
            {
                "id": 1196,
                "code": "AGRI-2025-71957A93",
                "sponsorId": 158,
                "subscriptionTierId": 1,
                "sponsorshipPurchaseId": 34,
                "isUsed": false,
                "createdDate": "2025-11-09T08:54:28.761403",
                "expiryDate": "2025-12-09T08:54:28.761403",
                "isActive": true,
                "linkClickCount": 0,
                "linkDelivered": false
            },
            {
                "id": 1195,
                "code": "AGRI-2025-2735611C",
                "sponsorId": 158,
                "subscriptionTierId": 1,
                "sponsorshipPurchaseId": 34,
                "isUsed": false,
                "createdDate": "2025-11-09T08:54:28.761399",
                "expiryDate": "2025-12-09T08:54:28.761399",
                "isActive": true,
                "linkClickCount": 0,
                "linkDelivered": false
            },
            {
                "id": 1194,
                "code": "AGRI-2025-9878237A",
                "sponsorId": 158,
                "subscriptionTierId": 1,
                "sponsorshipPurchaseId": 34,
                "isUsed": false,
                "createdDate": "2025-11-09T08:54:28.761393",
                "expiryDate": "2025-12-09T08:54:28.761393",
                "isActive": true,
                "linkClickCount": 0,
                "linkDelivered": false
            },
            {
                "id": 1193,
                "code": "AGRI-2025-40848790",
                "sponsorId": 158,
                "subscriptionTierId": 1,
                "sponsorshipPurchaseId": 34,
                "isUsed": false,
                "createdDate": "2025-11-09T08:54:28.761389",
                "expiryDate": "2025-12-09T08:54:28.761389",
                "isActive": true,
                "linkClickCount": 0,
                "linkDelivered": false
            },
            {
                "id": 1192,
                "code": "AGRI-2025-99886086",
                "sponsorId": 158,
                "subscriptionTierId": 1,
                "sponsorshipPurchaseId": 34,
                "isUsed": false,
                "createdDate": "2025-11-09T08:54:28.761385",
                "expiryDate": "2025-12-09T08:54:28.761385",
                "isActive": true,
                "linkClickCount": 0,
                "linkDelivered": false
            },
            {
                "id": 1191,
                "code": "AGRI-2025-2563B00C",
                "sponsorId": 158,
                "subscriptionTierId": 1,
                "sponsorshipPurchaseId": 34,
                "isUsed": false,
                "createdDate": "2025-11-09T08:54:28.761379",
                "expiryDate": "2025-12-09T08:54:28.76138",
                "isActive": true,
                "linkClickCount": 0,
                "linkDelivered": false
            },
            {
                "id": 1190,
                "code": "AGRI-2025-880865BB",
                "sponsorId": 158,
                "subscriptionTierId": 1,
                "sponsorshipPurchaseId": 34,
                "isUsed": false,
                "createdDate": "2025-11-09T08:54:28.761376",
                "expiryDate": "2025-12-09T08:54:28.761376",
                "isActive": true,
                "linkClickCount": 0,
                "linkDelivered": false
            },
            {
                "id": 1189,
                "code": "AGRI-2025-3707D42F",
                "sponsorId": 158,
                "subscriptionTierId": 1,
                "sponsorshipPurchaseId": 34,
                "isUsed": false,
                "createdDate": "2025-11-09T08:54:28.761373",
                "expiryDate": "2025-12-09T08:54:28.761373",
                "isActive": true,
                "linkClickCount": 0,
                "linkDelivered": false
            },
            {
                "id": 1188,
                "code": "AGRI-2025-6919384B",
                "sponsorId": 158,
                "subscriptionTierId": 1,
                "sponsorshipPurchaseId": 34,
                "isUsed": false,
                "createdDate": "2025-11-09T08:54:28.761369",
                "expiryDate": "2025-12-09T08:54:28.761369",
                "isActive": true,
                "linkClickCount": 0,
                "linkDelivered": false
            },
            {
                "id": 1187,
                "code": "AGRI-2025-498595C8",
                "sponsorId": 158,
                "subscriptionTierId": 1,
                "sponsorshipPurchaseId": 34,
                "isUsed": false,
                "createdDate": "2025-11-09T08:54:28.761366",
                "expiryDate": "2025-12-09T08:54:28.761366",
                "isActive": true,
                "linkClickCount": 0,
                "linkDelivered": false
            },
            {
                "id": 1186,
                "code": "AGRI-2025-2596F929",
                "sponsorId": 158,
                "subscriptionTierId": 1,
                "sponsorshipPurchaseId": 34,
                "isUsed": false,
                "createdDate": "2025-11-09T08:54:28.761363",
                "expiryDate": "2025-12-09T08:54:28.761363",
                "isActive": true,
                "linkClickCount": 0,
                "linkDelivered": false
            },
            {
                "id": 1185,
                "code": "AGRI-2025-5291A406",
                "sponsorId": 158,
                "subscriptionTierId": 1,
                "sponsorshipPurchaseId": 34,
                "isUsed": false,
                "createdDate": "2025-11-09T08:54:28.761359",
                "expiryDate": "2025-12-09T08:54:28.761359",
                "isActive": true,
                "linkClickCount": 0,
                "linkDelivered": false
            },
            {
                "id": 1184,
                "code": "AGRI-2025-2523ABF9",
                "sponsorId": 158,
                "subscriptionTierId": 1,
                "sponsorshipPurchaseId": 34,
                "isUsed": false,
                "createdDate": "2025-11-09T08:54:28.761355",
                "expiryDate": "2025-12-09T08:54:28.761355",
                "isActive": true,
                "linkClickCount": 0,
                "linkDelivered": false
            },
            {
                "id": 1183,
                "code": "AGRI-2025-523561D8",
                "sponsorId": 158,
                "subscriptionTierId": 1,
                "sponsorshipPurchaseId": 34,
                "isUsed": false,
                "createdDate": "2025-11-09T08:54:28.761348",
                "expiryDate": "2025-12-09T08:54:28.761348",
                "isActive": true,
                "linkClickCount": 0,
                "linkDelivered": false
            },
            {
                "id": 1182,
                "code": "AGRI-2025-6992EC1F",
                "sponsorId": 158,
                "subscriptionTierId": 1,
                "sponsorshipPurchaseId": 34,
                "isUsed": false,
                "createdDate": "2025-11-09T08:54:28.761345",
                "expiryDate": "2025-12-09T08:54:28.761345",
                "isActive": true,
                "linkClickCount": 0,
                "linkDelivered": false
            },
            {
                "id": 1181,
                "code": "AGRI-2025-8015F8AB",
                "sponsorId": 158,
                "subscriptionTierId": 1,
                "sponsorshipPurchaseId": 34,
                "isUsed": false,
                "createdDate": "2025-11-09T08:54:28.761341",
                "expiryDate": "2025-12-09T08:54:28.761341",
                "isActive": true,
                "linkClickCount": 0,
                "linkDelivered": false
            },
            {
                "id": 1180,
                "code": "AGRI-2025-468934B8",
                "sponsorId": 158,
                "subscriptionTierId": 1,
                "sponsorshipPurchaseId": 34,
                "isUsed": false,
                "createdDate": "2025-11-09T08:54:28.761337",
                "expiryDate": "2025-12-09T08:54:28.761337",
                "isActive": true,
                "linkClickCount": 0,
                "linkDelivered": false
            },
            {
                "id": 1179,
                "code": "AGRI-2025-550193E3",
                "sponsorId": 158,
                "subscriptionTierId": 1,
                "sponsorshipPurchaseId": 34,
                "isUsed": false,
                "createdDate": "2025-11-09T08:54:28.761331",
                "expiryDate": "2025-12-09T08:54:28.761331",
                "isActive": true,
                "linkClickCount": 0,
                "linkDelivered": false
            },
            {
                "id": 1178,
                "code": "AGRI-2025-92183540",
                "sponsorId": 158,
                "subscriptionTierId": 1,
                "sponsorshipPurchaseId": 34,
                "isUsed": false,
                "createdDate": "2025-11-09T08:54:28.761328",
                "expiryDate": "2025-12-09T08:54:28.761328",
                "isActive": true,
                "linkClickCount": 0,
                "linkDelivered": false
            },
            {
                "id": 1177,
                "code": "AGRI-2025-64371A77",
                "sponsorId": 158,
                "subscriptionTierId": 1,
                "sponsorshipPurchaseId": 34,
                "isUsed": false,
                "createdDate": "2025-11-09T08:54:28.761324",
                "expiryDate": "2025-12-09T08:54:28.761324",
                "isActive": true,
                "linkClickCount": 0,
                "linkDelivered": false
            },
            {
                "id": 1176,
                "code": "AGRI-2025-54053C24",
                "sponsorId": 158,
                "subscriptionTierId": 1,
                "sponsorshipPurchaseId": 34,
                "isUsed": false,
                "createdDate": "2025-11-09T08:54:28.761321",
                "expiryDate": "2025-12-09T08:54:28.761321",
                "isActive": true,
                "linkClickCount": 0,
                "linkDelivered": false
            },
            {
                "id": 1175,
                "code": "AGRI-2025-5232EDC5",
                "sponsorId": 158,
                "subscriptionTierId": 1,
                "sponsorshipPurchaseId": 34,
                "isUsed": false,
                "createdDate": "2025-11-09T08:54:28.761318",
                "expiryDate": "2025-12-09T08:54:28.761318",
                "isActive": true,
                "linkClickCount": 0,
                "linkDelivered": false
            },
            {
                "id": 1174,
                "code": "AGRI-2025-78155E20",
                "sponsorId": 158,
                "subscriptionTierId": 1,
                "sponsorshipPurchaseId": 34,
                "isUsed": false,
                "createdDate": "2025-11-09T08:54:28.761314",
                "expiryDate": "2025-12-09T08:54:28.761314",
                "isActive": true,
                "linkClickCount": 0,
                "linkDelivered": false
            },
            {
                "id": 1173,
                "code": "AGRI-2025-2202B1E7",
                "sponsorId": 158,
                "subscriptionTierId": 1,
                "sponsorshipPurchaseId": 34,
                "isUsed": false,
                "createdDate": "2025-11-09T08:54:28.761311",
                "expiryDate": "2025-12-09T08:54:28.761311",
                "isActive": true,
                "linkClickCount": 0,
                "linkDelivered": false
            },
            {
                "id": 1172,
                "code": "AGRI-2025-26594918",
                "sponsorId": 158,
                "subscriptionTierId": 1,
                "sponsorshipPurchaseId": 34,
                "isUsed": false,
                "createdDate": "2025-11-09T08:54:28.761306",
                "expiryDate": "2025-12-09T08:54:28.761306",
                "isActive": true,
                "linkClickCount": 0,
                "linkDelivered": false
            }
        ],
        "totalCount": 90,
        "page": 1,
        "pageSize": 50,
        "totalPages": 2,
        "hasPreviousPage": false,
        "hasNextPage": true
    },
    "success": true,
    "message": "90 unsent codes available for distribution"
}