{
    "data": {
        "items": [
            {
                "analysisId": 76,
                "analysisDate": "2025-10-26T17:47:46.4",
                "analysisStatus": "Completed",
                "cropType": "Domates",
                "overallHealthScore": 6,
                "plantSpecies": "Domates",
                "plantVariety": "bilinmiyor",
                "growthStage": "vejetatif",
                "imageUrl": "https://iili.io/K4azIa9.jpg",
                "vigorScore": 6,
                "healthSeverity": "orta",
                "primaryConcern": "fungal yaprak lekesi (Alternaria/Septoria olasılığı)",
                "location": "Istanbul, Turkey",
                "tierName": "L",
                "accessPercentage": 100,
                "canMessage": true,
                "canViewLogo": true,
                "sponsorInfo": {
                    "sponsorId": 159,
                    "companyName": "dort tarim"
                },
                "messagingStatus": {
                    "hasMessages": true,
                    "totalMessageCount": 5,
                    "unreadCount": 1,
                    "lastMessageDate": "2025-10-27T19:17:08.612924",
                    "lastMessagePreview": "Delaers sent a message",
                    "lastMessageBy": "farmer",
                    "hasFarmerResponse": true,
                    "lastFarmerResponseDate": "2025-10-27T19:15:48.954607",
                    "conversationStatus": "Active"
                },
                "unreadMessageCount": 1,
                "totalMessageCount": 5,
                "lastMessageDate": "2025-10-27T19:17:08.612924",
                "lastMessagePreview": "Delaers sent a message",
                "lastMessageSenderRole": "farmer",
                "hasUnreadFromFarmer": true,
                "conversationStatus": "Active"
            },
            {
                "analysisId": 75,
                "analysisDate": "2025-10-26T17:46:36.411",
                "analysisStatus": "Completed",
                "cropType": "Domates",
                "overallHealthScore": 4,
                "plantSpecies": "Domates (Solanum lycopersicum)",
                "plantVariety": "bilinmiyor",
                "growthStage": "vejetatif",
                "imageUrl": "https://iili.io/K4azIa9.jpg",
                "vigorScore": 4,
                "healthSeverity": "orta",
                "primaryConcern": "muhtemel azot/magnezyum eksikliği ile ilişkili yaprak sararması ve yüzeysel fungal lezyon riski",
                "location": "Istanbul, Turkey",
                "tierName": "L",
                "accessPercentage": 100,
                "canMessage": true,
                "canViewLogo": true,
                "sponsorInfo": {
                    "sponsorId": 159,
                    "companyName": "dort tarim"
                },
                "messagingStatus": {
                    "hasMessages": false,
                    "totalMessageCount": 0,
                    "unreadCount": 0,
                    "hasFarmerResponse": false,
                    "conversationStatus": "NoContact"
                },
                "unreadMessageCount": 0,
                "totalMessageCount": 0,
                "hasUnreadFromFarmer": false,
                "conversationStatus": "None"
            },
            {
                "analysisId": 74,
                "analysisDate": "2025-10-26T17:36:41.132",
                "analysisStatus": "Completed",
                "cropType": "Domates",
                "overallHealthScore": 5,
                "plantSpecies": "Domates (Solanum lycopersicum)",
                "plantVariety": "bilinmiyor",
                "growthStage": "vejetatif",
                "imageUrl": "https://iili.io/K4YLTej.jpg",
                "vigorScore": 5,
                "healthSeverity": "orta",
                "primaryConcern": "besin eksikliği (özellikle azot ve kalsiyum) ve düzensiz sulama/kuraklık stresi",
                "location": "Istanbul, Turkey",
                "tierName": "L",
                "accessPercentage": 100,
                "canMessage": true,
                "canViewLogo": true,
                "sponsorInfo": {
                    "sponsorId": 159,
                    "companyName": "dort tarim"
                },
                "messagingStatus": {
                    "hasMessages": false,
                    "totalMessageCount": 0,
                    "unreadCount": 0,
                    "hasFarmerResponse": false,
                    "conversationStatus": "NoContact"
                },
                "unreadMessageCount": 0,
                "totalMessageCount": 0,
                "hasUnreadFromFarmer": false,
                "conversationStatus": "None"
            },
            {
                "analysisId": 73,
                "analysisDate": "2025-10-26T17:35:32.215",
                "analysisStatus": "Completed",
                "cropType": "Domates",
                "overallHealthScore": 5,
                "plantSpecies": "Domates",
                "plantVariety": "bilinmiyor",
                "growthStage": "vejetatif",
                "imageUrl": "https://iili.io/K4YLTej.jpg",
                "vigorScore": 5,
                "healthSeverity": "orta",
                "primaryConcern": "azot ve magnezyum eksikliği / düzensiz sulama",
                "location": "Istanbul, Turkey",
                "tierName": "L",
                "accessPercentage": 100,
                "canMessage": true,
                "canViewLogo": true,
                "sponsorInfo": {
                    "sponsorId": 159,
                    "companyName": "dort tarim"
                },
                "messagingStatus": {
                    "hasMessages": false,
                    "totalMessageCount": 0,
                    "unreadCount": 0,
                    "hasFarmerResponse": false,
                    "conversationStatus": "NoContact"
                },
                "unreadMessageCount": 0,
                "totalMessageCount": 0,
                "hasUnreadFromFarmer": false,
                "conversationStatus": "None"
            },
            {
                "analysisId": 72,
                "analysisDate": "2025-10-26T17:34:16.466",
                "analysisStatus": "Completed",
                "cropType": "Domates",
                "overallHealthScore": 5,
                "plantSpecies": "Domates (Solanum lycopersicum)",
                "plantVariety": "bilinmiyor",
                "growthStage": "vejetatif",
                "imageUrl": "https://iili.io/K4YLTej.jpg",
                "vigorScore": 5,
                "healthSeverity": "orta",
                "primaryConcern": "besin eksikliği (azot ve magnezyum ön planda) ve buna bağlı zayıf yapı",
                "location": "Istanbul, Turkey",
                "tierName": "L",
                "accessPercentage": 100,
                "canMessage": true,
                "canViewLogo": true,
                "sponsorInfo": {
                    "sponsorId": 159,
                    "companyName": "dort tarim"
                },
                "messagingStatus": {
                    "hasMessages": false,
                    "totalMessageCount": 0,
                    "unreadCount": 0,
                    "hasFarmerResponse": false,
                    "conversationStatus": "NoContact"
                },
                "unreadMessageCount": 0,
                "totalMessageCount": 0,
                "hasUnreadFromFarmer": false,
                "conversationStatus": "None"
            },
            {
                "analysisId": 62,
                "analysisDate": "2025-10-22T19:16:16.21",
                "analysisStatus": "Completed",
                "overallHealthScore": 4,
                "plantSpecies": "Tanımlanamadı (görüntüden kesin tür belirlenemiyor)",
                "plantVariety": "bilinmiyor",
                "growthStage": "vejetatif",
                "imageUrl": "https://iili.io/KUh0jt9.jpg",
                "vigorScore": 4,
                "healthSeverity": "orta",
                "primaryConcern": "muhtemel azot eksikliği ve yüzey su stresi",
                "tierName": "L",
                "accessPercentage": 100,
                "canMessage": true,
                "canViewLogo": true,
                "sponsorInfo": {
                    "sponsorId": 159,
                    "companyName": "dort tarim"
                },
                "messagingStatus": {
                    "hasMessages": false,
                    "totalMessageCount": 0,
                    "unreadCount": 0,
                    "hasFarmerResponse": false,
                    "conversationStatus": "NoContact"
                },
                "unreadMessageCount": 0,
                "totalMessageCount": 0,
                "hasUnreadFromFarmer": false,
                "conversationStatus": "None"
            },
            {
                "analysisId": 61,
                "analysisDate": "2025-10-22T18:51:20.997",
                "analysisStatus": "Completed",
                "overallHealthScore": 5,
                "plantSpecies": "Bilinmiyor - görüntü net değil; yaprak yapısı temel ipucu veriyor olabilir",
                "plantVariety": "bilinmiyor",
                "growthStage": "vejetatif",
                "imageUrl": "https://iili.io/KUX8s9t.jpg",
                "vigorScore": 5,
                "healthSeverity": "düşük",
                "primaryConcern": "Görüntü yetersizliği nedeniyle net teşhis yapılamaması; yapraklarda olası leke/nekroz",
                "tierName": "L",
                "accessPercentage": 100,
                "canMessage": true,
                "canViewLogo": true,
                "sponsorInfo": {
                    "sponsorId": 159,
                    "companyName": "dort tarim"
                },
                "messagingStatus": {
                    "hasMessages": false,
                    "totalMessageCount": 0,
                    "unreadCount": 0,
                    "hasFarmerResponse": false,
                    "conversationStatus": "NoContact"
                },
                "unreadMessageCount": 0,
                "totalMessageCount": 0,
                "hasUnreadFromFarmer": false,
                "conversationStatus": "None"
            },
            {
                "analysisId": 60,
                "analysisDate": "2025-10-17T09:02:48.888",
                "analysisStatus": "Completed",
                "overallHealthScore": 5,
                "plantSpecies": "bilinmiyor (görüntüye erişim veya netlik yok)",
                "plantVariety": "bilinmiyor",
                "growthStage": "vejetatif",
                "imageUrl": "https://iili.io/Kvn7z9p.jpg",
                "vigorScore": 5,
                "healthSeverity": "yok",
                "primaryConcern": "görüntü ve alan bilgisi eksikliği - tanı yapılamıyor",
                "tierName": "L",
                "accessPercentage": 100,
                "canMessage": true,
                "canViewLogo": true,
                "sponsorInfo": {
                    "sponsorId": 159,
                    "companyName": "dort tarim"
                },
                "messagingStatus": {
                    "hasMessages": true,
                    "totalMessageCount": 45,
                    "unreadCount": 0,
                    "lastMessageDate": "2025-10-27T13:54:39.062376",
                    "lastMessagePreview": "Deneme",
                    "lastMessageBy": "sponsor",
                    "hasFarmerResponse": true,
                    "lastFarmerResponseDate": "2025-10-21T15:46:45.933397",
                    "conversationStatus": "Active"
                },
                "unreadMessageCount": 0,
                "totalMessageCount": 45,
                "lastMessageDate": "2025-10-27T13:54:39.062376",
                "lastMessagePreview": "Deneme",
                "lastMessageSenderRole": "sponsor",
                "hasUnreadFromFarmer": false,
                "conversationStatus": "Active"
            },
            {
                "analysisId": 59,
                "analysisDate": "2025-10-17T08:51:12.786",
                "analysisStatus": "Completed",
                "overallHealthScore": 4,
                "plantSpecies": "bilinmiyor (görüntü net değil, yaprak morfolojisi ve venasyon fotoğraftan kesin belirlenemiyor)",
                "plantVariety": "bilinmiyor",
                "growthStage": "vejetatif",
                "imageUrl": "https://iili.io/Kvn2xyl.jpg",
                "vigorScore": 4,
                "healthSeverity": "orta",
                "primaryConcern": "yaprak klorozu/lekelenmesi - olası besin eksikliği veya hafif su stresi",
                "tierName": "L",
                "accessPercentage": 100,
                "canMessage": true,
                "canViewLogo": true,
                "sponsorInfo": {
                    "sponsorId": 159,
                    "companyName": "dort tarim"
                },
                "messagingStatus": {
                    "hasMessages": true,
                    "totalMessageCount": 37,
                    "unreadCount": 0,
                    "lastMessageDate": "2025-10-24T13:26:29.511729",
                    "lastMessagePreview": "selaaaaam",
                    "lastMessageBy": "sponsor",
                    "hasFarmerResponse": true,
                    "lastFarmerResponseDate": "2025-10-22T19:13:21.312497",
                    "conversationStatus": "Active"
                },
                "unreadMessageCount": 0,
                "totalMessageCount": 37,
                "lastMessageDate": "2025-10-24T13:26:29.511729",
                "lastMessagePreview": "selaaaaam",
                "lastMessageSenderRole": "sponsor",
                "hasUnreadFromFarmer": false,
                "conversationStatus": "Active"
            },
            {
                "analysisId": 58,
                "analysisDate": "2025-10-17T08:42:44.931",
                "analysisStatus": "Completed",
                "overallHealthScore": 4,
                "plantSpecies": "bilinmiyor (görüntü tek bir bitki veya yaprak kümesi içeriyor; tür belirlemesi için çiçek/meyve/kök veya daha geniş bitki bağlamı gerekli)",
                "plantVariety": "bilinmiyor",
                "growthStage": "vejetatif",
                "imageUrl": "https://iili.io/KvCLbr7.jpg",
                "vigorScore": 4,
                "healthSeverity": "orta",
                "primaryConcern": "yaprak klorozu - muhtemel azot ve/veya magnezyum eksikliği",
                "tierName": "L",
                "accessPercentage": 100,
                "canMessage": true,
                "canViewLogo": true,
                "sponsorInfo": {
                    "sponsorId": 159,
                    "companyName": "dort tarim"
                },
                "messagingStatus": {
                    "hasMessages": false,
                    "totalMessageCount": 0,
                    "unreadCount": 0,
                    "hasFarmerResponse": false,
                    "conversationStatus": "NoContact"
                },
                "unreadMessageCount": 0,
                "totalMessageCount": 0,
                "hasUnreadFromFarmer": false,
                "conversationStatus": "None"
            }
        ],
        "totalCount": 18,
        "page": 1,
        "pageSize": 10,
        "totalPages": 2,
        "hasNextPage": true,
        "hasPreviousPage": false,
        "summary": {
            "totalAnalyses": 18,
            "averageHealthScore": 4.38888888888889,
            "topCropTypes": [
                "Domates"
            ],
            "analysesThisMonth": 18,
            "contactedAnalyses": 4,
            "notContactedAnalyses": 14,
            "activeConversations": 4,
            "pendingResponses": 0,
            "totalUnreadMessages": 1,
            "analysesWithUnread": 1
        }
    },
    "success": true,
    "message": "Retrieved 10 analyses (page 1 of 2)"
}